Project 2: Data Mining, Classification, Prediction
…
library(tidyverse)
# read your datasets in here, e.g., with read_csv()
nbastats2018_2019 <- read_csv("nbastats2018-2019.csv", col_types = cols(Height = col_number(), 
    Weight = col_number(), Age = col_number(), Salary = col_number(), 
    Points = col_number(), Blocks = col_number(), Steals = col_number(), 
    Assists = col_number(), Rebounds = col_number(), `FT%` = col_number(), 
    `FG3%` = col_number(), `FG%` = col_number(), MP = col_number(), 
    G = col_number()))
nbastats2018_2019

## # A tibble: 50 x 17
##    Name  Height Weight Team  Citzenship   Age Salary Points Blocks Steals
##    <chr>  <dbl>  <dbl> <chr> <chr>      <dbl>  <dbl>  <dbl>  <dbl>  <dbl>
##  1 Stev     84    265 Okla Internati    25 2.42e7   13.9    1      1.5
##  2 LaMa     83    260 San  USA           33 2.23e7   21.3    1.3    0.5
##  3 Gian     83    242 Milw Internati    24 2.42e7   27.7    1.5    1.3
##  4 Brad     77    207 Wash USA           25 2.54e7   25.6    0.7    1.5
##  5 Eric     73    205 Milw USA           29 1.50e7   15.9    0.4    1.5
##  6 Devi     78    210 Phoe USA           22 3.31e6   26.6    0.2    0.9
##  7 Jimm     80    232 Phil USA           29 2.04e7   18.7    0.6    1.9
##  8 Clin     82    240 Hous Internati    24 1.53e7   16.6    1.5    0.7
##  9 John     82    235 Atla USA           21 2.30e6   19.5    0.6    0.4
## 10 Mike     73    175 Memp USA           31 3.05e7   21.1    0.3    1.3
## #  with 40 more rows, and 7 more variables: Assists <dbl>, Rebounds <dbl>,
## #   `FT%` <dbl>, `FG3%` <dbl>, `FG%` <dbl>, MP <dbl>, G <dbl>

# if your dataset needs tidying, do so here

# any other code here

nbastats2018_2019 %>% filter(Citzenship == "USA")

## # A tibble: 35 x 17
##    Name  Height Weight Team  Citzenship   Age Salary Points Blocks Steals
##    <chr>  <dbl>  <dbl> <chr> <chr>      <dbl>  <dbl>  <dbl>  <dbl>  <dbl>
##  1 LaMa     83    260 San  USA           33 2.23e7   21.3    1.3    0.5
##  2 Brad     77    207 Wash USA           25 2.54e7   25.6    0.7    1.5
##  3 Eric     73    205 Milw USA           29 1.50e7   15.9    0.4    1.5
##  4 Devi     78    210 Phoe USA           22 3.31e6   26.6    0.2    0.9
##  5 Jimm     80    232 Phil USA           29 2.04e7   18.7    0.6    1.9
##  6 John     82    235 Atla USA           21 2.30e6   19.5    0.6    0.4
##  7 Mike     73    175 Memp USA           31 3.05e7   21.1    0.3    1.3
##  8 Step     75    190 Gold USA           30 3.75e7   27.3    0.4    1.3
##  9 Anth     82    253 New  USA           25 2.54e7   25.9    2.4    1.6
## 10 DeMa     79    220 San  USA           29 2.77e7   21.2    0.5    1.1
## #  with 25 more rows, and 7 more variables: Assists <dbl>, Rebounds <dbl>,
## #   `FT%` <dbl>, `FG3%` <dbl>, `FG%` <dbl>, MP <dbl>, G <dbl>
…
Cluster Analysis

library(cluster)
# clustering code here
nbastats <- (na.omit(nbastats2018_2019))
subset(nbastats, select = -c(Name, Height, Weight, Team, Citzenship))

## # A tibble: 48 x 12
##      Age Salary Points Blocks Steals Assists Rebounds `FT%` `FG3%` `FG%`    MP
##    <dbl>  <dbl>  <dbl>  <dbl>  <dbl>   <dbl>    <dbl> <dbl>  <dbl> <dbl> <dbl>
##  1    25 2.42e7   13.9    1      1.5     1.6      9.5 0.5    0     0.595  33.4
##  2    33 2.23e7   21.3    1.3    0.5     2.4      9.2 0.847  0.238 0.519  33.2
##  3    24 2.42e7   27.7    1.5    1.3     5.9     12.5 0.729  0.256 0.578  32.8
##  4    25 2.54e7   25.6    0.7    1.5     5.5      5   0.808  0.351 0.475  36.9
##  5    29 1.50e7   15.9    0.4    1.5     5.5      4.6 0.75   0.329 0.484  29.1
##  6    22 3.31e6   26.6    0.2    0.9     6.8      4.1 0.866  0.326 0.467  35  
##  7    29 2.04e7   18.7    0.6    1.9     4        5.3 0.855  0.347 0.462  33.6
##  8    21 2.30e6   19.5    0.6    0.4     2        9.8 0.763  0.348 0.56   30  
##  9    31 3.05e7   21.1    0.3    1.3     6.4      3.4 0.845  0.364 0.438  33.5
## 10    30 3.75e7   27.3    0.4    1.3     5.2      5.3 0.916  0.437 0.472  33.8
## #  with 38 more rows, and 1 more variable: G <dbl>
…
Discussion of clustering here

For this portion of the project, a new data called nbastats was created where it omitted all observations that included NAs. In the nbastats dataset, all the character columns such as Names, Teams, etc. and numeric variables height and weight were removed in order to move on with the PAM cluster analysis and this dataset was named nbaclusterdata. The best number to use for a PAM clustering algorithm was k=2, and that was when the silhouette width was highest, at a value of around 0.67, which is the same as the overall average silhouette width. This number indicates that a reasonable structure has been found. Since all the names of the players were removed in the nba_pam data, I was not able to directly figure the names of the players directly. However, the user ID information was displayed from nba_pam and it was used in the nbastats data in order to find the names of the medoids. The two provinces that are the medoids were Jrue Holiday and Ben Simmons.

Dimensionality Reduction with PCA

# PCA code here
nbaclusterdata[c("Points", "Rebounds", "Assists")]

## # A tibble: 48 x 3
##    Points Rebounds Assists
##     <dbl>    <dbl>   <dbl>
##  1   13.9      9.5     1.6
##  2   21.3      9.2     2.4
##  3   27.7     12.5     5.9
##  4   25.6      5       5.5
##  5   15.9      4.6     5.5
##  6   26.6      4.1     6.8
##  7   18.7      5.3     4  
##  8   19.5      9.8     2  
##  9   21.1      3.4     6.4
## 10   27.3      5.3     5.2
## #  with 38 more rows
…
